Artifex - Fall 2023
…
##        1 
## 1004.796

## `summarise()` has grouped output by 'country_code'.
## You can override using the `.groups` argument.

## # A tibble: 39 × 3
## # Groups:   country_code [8]
##    country_code marketing_channel           m
##    <chr>        <chr>                   <dbl>
##  1 be           Display Ads           1229.  
##  2 be           KAYAK Deals Email       34.9 
##  3 be           Search Engine Ads     1799.  
##  4 be           Search Engine Results 1018.  
##  5 be           Travel Search Site      24.2 
##  6 fi           Display Ads             17.9 
##  7 fi           KAYAK Deals Email        8.35
##  8 fi           Search Engine Ads        1.29
##  9 fi           Search Engine Results    7.11
## 10 fr           Display Ads            424.  
## # ℹ 29 more rows
…
